Exposure,SeriesDescription,SeriesInstanceUID,SeriesNumber,SliceThickness
85,5/5mm Plain,1.2.840.113619.2.337.3.2831186181.801.1414550448.629,2,5.000000
85,5/5mm Plain,1.2.840.113619.2.337.3.2831186181.801.1414550448.629,2,5.000000
85,5/5mm Plain,1.2.840.113619.2.337.3.2831186181.801.1414550448.629,2,5.000000
85,5/5mm Plain,1.2.840.113619.2.337.3.2831186181.801.1414550448.629,2,5.000000
85,5/5mm Plain,1.2.840.113619.2.337.3.2831186181.801.1414550448.629,2,5.000000
85,5/5mm Plain,1.2.840.113619.2.337.3.2831186181.801.1414550448.629,2,5.000000
85,5/5mm Plain,1.2.840.113619.2.337.3.2831186181.801.1414550448.629,2,5.000000
85,5/5mm Plain,1.2.840.113619.2.337.3.2831186181.801.1414550448.629,2,5.000000
85,5/5mm Plain,1.2.840.113619.2.337.3.2831186181.801.1414550448.629,2,5.000000
85,5/5mm Plain,1.2.840.113619.2.337.3.2831186181.801.1414550448.629,2,5.000000
85,5/5mm Plain,1.2.840.113619.2.337.3.2831186181.801.1414550448.629,2,5.000000
85,5/5mm Plain,1.2.840.113619.2.337.3.2831186181.801.1414550448.629,2,5.000000
85,5/5mm Plain,1.2.840.113619.2.337.3.2831186181.801.1414550448.629,2,5.000000
85,5/5mm Plain,1.2.840.113619.2.337.3.2831186181.801.1414550448.629,2,5.000000
85,5/5mm Plain,1.2.840.113619.2.337.3.2831186181.801.1414550448.629,2,5.000000
85,5/5mm Plain,1.2.840.113619.2.337.3.2831186181.801.1414550448.629,2,5.000000
85,5/5mm Plain,1.2.840.113619.2.337.3.2831186181.801.1414550448.629,2,5.000000
85,5/5mm Plain,1.2.840.113619.2.337.3.2831186181.801.1414550448.629,2,5.000000
85,5/5mm Plain,1.2.840.113619.2.337.3.2831186181.801.1414550448.629,2,5.000000
85,5/5mm Plain,1.2.840.113619.2.337.3.2831186181.801.1414550448.629,2,5.000000
85,5/5mm Plain,1.2.840.113619.2.337.3.2831186181.801.1414550448.629,2,5.000000
85,5/5mm Plain,1.2.840.113619.2.337.3.2831186181.801.1414550448.629,2,5.000000
85,5/5mm Plain,1.2.840.113619.2.337.3.2831186181.801.1414550448.629,2,5.000000
85,5/5mm Plain,1.2.840.113619.2.337.3.2831186181.801.1414550448.629,2,5.000000
85,5/5mm Plain,1.2.840.113619.2.337.3.2831186181.801.1414550448.629,2,5.000000
85,5/5mm Plain,1.2.840.113619.2.337.3.2831186181.801.1414550448.629,2,5.000000
85,5/5mm Plain,1.2.840.113619.2.337.3.2831186181.801.1414550448.629,2,5.000000
85,5/5mm Plain,1.2.840.113619.2.337.3.2831186181.801.1414550448.629,2,5.000000
85,5/5mm Plain,1.2.840.113619.2.337.3.2831186181.801.1414550448.629,2,5.000000
85,5/5mm Plain,1.2.840.113619.2.337.3.2831186181.801.1414550448.629,2,5.000000
85,5/5mm Plain,1.2.840.113619.2.337.3.2831186181.801.1414550448.629,2,5.000000
85,5/5mm Plain,1.2.840.113619.2.337.3.2831186181.801.1414550448.629,2,5.000000
10,Thin Plain,1.2.840.113619.2.337.3.2831186181.801.1414550448.629.3,3,0.625000
10,Thin Plain,1.2.840.113619.2.337.3.2831186181.801.1414550448.629.3,3,0.625000
10,Thin Plain,1.2.840.113619.2.337.3.2831186181.801.1414550448.629.3,3,0.625000
10,Thin Plain,1.2.840.113619.2.337.3.2831186181.801.1414550448.629.3,3,0.625000
10,Thin Plain,1.2.840.113619.2.337.3.2831186181.801.1414550448.629.3,3,0.625000
10,Thin Plain,1.2.840.113619.2.337.3.2831186181.801.1414550448.629.3,3,0.625000
10,Thin Plain,1.2.840.113619.2.337.3.2831186181.801.1414550448.629.3,3,0.625000
10,Thin Plain,1.2.840.113619.2.337.3.2831186181.801.1414550448.629.3,3,0.625000
10,Thin Plain,1.2.840.113619.2.337.3.2831186181.801.1414550448.629.3,3,0.625000
10,Thin Plain,1.2.840.113619.2.337.3.2831186181.801.1414550448.629.3,3,0.625000
10,Thin Plain,1.2.840.113619.2.337.3.2831186181.801.1414550448.629.3,3,0.625000
10,Thin Plain,1.2.840.113619.2.337.3.2831186181.801.1414550448.629.3,3,0.625000
10,Thin Plain,1.2.840.113619.2.337.3.2831186181.801.1414550448.629.3,3,0.625000
10,Thin Plain,1.2.840.113619.2.337.3.2831186181.801.1414550448.629.3,3,0.625000
10,Thin Plain,1.2.840.113619.2.337.3.2831186181.801.1414550448.629.3,3,0.625000
10,Thin Plain,1.2.840.113619.2.337.3.2831186181.801.1414550448.629.3,3,0.625000
10,Thin Plain,1.2.840.113619.2.337.3.2831186181.801.1414550448.629.3,3,0.625000
10,Thin Plain,1.2.840.113619.2.337.3.2831186181.801.1414550448.629.3,3,0.625000
10,Thin Plain,1.2.840.113619.2.337.3.2831186181.801.1414550448.629.3,3,0.625000
10,Thin Plain,1.2.840.113619.2.337.3.2831186181.801.1414550448.629.3,3,0.625000
10,Thin Plain,1.2.840.113619.2.337.3.2831186181.801.1414550448.629.3,3,0.625000
10,Thin Plain,1.2.840.113619.2.337.3.2831186181.801.1414550448.629.3,3,0.625000
10,Thin Plain,1.2.840.113619.2.337.3.2831186181.801.1414550448.629.3,3,0.625000
10,Thin Plain,1.2.840.113619.2.337.3.2831186181.801.1414550448.629.3,3,0.625000
10,Thin Plain,1.2.840.113619.2.337.3.2831186181.801.1414550448.629.3,3,0.625000
10,Thin Plain,1.2.840.113619.2.337.3.2831186181.801.1414550448.629.3,3,0.625000
10,Thin Plain,1.2.840.113619.2.337.3.2831186181.801.1414550448.629.3,3,0.625000
10,Thin Plain,1.2.840.113619.2.337.3.2831186181.801.1414550448.629.3,3,0.625000
10,Thin Plain,1.2.840.113619.2.337.3.2831186181.801.1414550448.629.3,3,0.625000
10,Thin Plain,1.2.840.113619.2.337.3.2831186181.801.1414550448.629.3,3,0.625000
10,Thin Plain,1.2.840.113619.2.337.3.2831186181.801.1414550448.629.3,3,0.625000
10,Thin Plain,1.2.840.113619.2.337.3.2831186181.801.1414550448.629.3,3,0.625000
10,Thin Plain,1.2.840.113619.2.337.3.2831186181.801.1414550448.629.3,3,0.625000
10,Thin Plain,1.2.840.113619.2.337.3.2831186181.801.1414550448.629.3,3,0.625000
10,Thin Plain,1.2.840.113619.2.337.3.2831186181.801.1414550448.629.3,3,0.625000
10,Thin Plain,1.2.840.113619.2.337.3.2831186181.801.1414550448.629.3,3,0.625000
10,Thin Plain,1.2.840.113619.2.337.3.2831186181.801.1414550448.629.3,3,0.625000
10,Thin Plain,1.2.840.113619.2.337.3.2831186181.801.1414550448.629.3,3,0.625000
10,Thin Plain,1.2.840.113619.2.337.3.2831186181.801.1414550448.629.3,3,0.625000
10,Thin Plain,1.2.840.113619.2.337.3.2831186181.801.1414550448.629.3,3,0.625000
10,Thin Plain,1.2.840.113619.2.337.3.2831186181.801.1414550448.629.3,3,0.625000
10,Thin Plain,1.2.840.113619.2.337.3.2831186181.801.1414550448.629.3,3,0.625000
10,Thin Plain,1.2.840.113619.2.337.3.2831186181.801.1414550448.629.3,3,0.625000
10,Thin Plain,1.2.840.113619.2.337.3.2831186181.801.1414550448.629.3,3,0.625000
10,Thin Plain,1.2.840.113619.2.337.3.2831186181.801.1414550448.629.3,3,0.625000
10,Thin Plain,1.2.840.113619.2.337.3.2831186181.801.1414550448.629.3,3,0.625000
10,Thin Plain,1.2.840.113619.2.337.3.2831186181.801.1414550448.629.3,3,0.625000
10,Thin Plain,1.2.840.113619.2.337.3.2831186181.801.1414550448.629.3,3,0.625000
10,Thin Plain,1.2.840.113619.2.337.3.2831186181.801.1414550448.629.3,3,0.625000
10,Thin Plain,1.2.840.113619.2.337.3.2831186181.801.1414550448.629.3,3,0.625000
10,Thin Plain,1.2.840.113619.2.337.3.2831186181.801.1414550448.629.3,3,0.625000
10,Thin Plain,1.2.840.113619.2.337.3.2831186181.801.1414550448.629.3,3,0.625000
10,Thin Plain,1.2.840.113619.2.337.3.2831186181.801.1414550448.629.3,3,0.625000
10,Thin Plain,1.2.840.113619.2.337.3.2831186181.801.1414550448.629.3,3,0.625000
10,Thin Plain,1.2.840.113619.2.337.3.2831186181.801.1414550448.629.3,3,0.625000
10,Thin Plain,1.2.840.113619.2.337.3.2831186181.801.1414550448.629.3,3,0.625000
10,Thin Plain,1.2.840.113619.2.337.3.2831186181.801.1414550448.629.3,3,0.625000
10,Thin Plain,1.2.840.113619.2.337.3.2831186181.801.1414550448.629.3,3,0.625000
10,Thin Plain,1.2.840.113619.2.337.3.2831186181.801.1414550448.629.3,3,0.625000
10,Thin Plain,1.2.840.113619.2.337.3.2831186181.801.1414550448.629.3,3,0.625000
10,Thin Plain,1.2.840.113619.2.337.3.2831186181.801.1414550448.629.3,3,0.625000
10,Thin Plain,1.2.840.113619.2.337.3.2831186181.801.1414550448.629.3,3,0.625000
10,Thin Plain,1.2.840.113619.2.337.3.2831186181.801.1414550448.629.3,3,0.625000
10,Thin Plain,1.2.840.113619.2.337.3.2831186181.801.1414550448.629.3,3,0.625000
10,Thin Plain,1.2.840.113619.2.337.3.2831186181.801.1414550448.629.3,3,0.625000
10,Thin Plain,1.2.840.113619.2.337.3.2831186181.801.1414550448.629.3,3,0.625000
10,Thin Plain,1.2.840.113619.2.337.3.2831186181.801.1414550448.629.3,3,0.625000
10,Thin Plain,1.2.840.113619.2.337.3.2831186181.801.1414550448.629.3,3,0.625000
10,Thin Plain,1.2.840.113619.2.337.3.2831186181.801.1414550448.629.3,3,0.625000
10,Thin Plain,1.2.840.113619.2.337.3.2831186181.801.1414550448.629.3,3,0.625000
10,Thin Plain,1.2.840.113619.2.337.3.2831186181.801.1414550448.629.3,3,0.625000
10,Thin Plain,1.2.840.113619.2.337.3.2831186181.801.1414550448.629.3,3,0.625000
10,Thin Plain,1.2.840.113619.2.337.3.2831186181.801.1414550448.629.3,3,0.625000
10,Thin Plain,1.2.840.113619.2.337.3.2831186181.801.1414550448.629.3,3,0.625000
10,Thin Plain,1.2.840.113619.2.337.3.2831186181.801.1414550448.629.3,3,0.625000
10,Thin Plain,1.2.840.113619.2.337.3.2831186181.801.1414550448.629.3,3,0.625000
10,Thin Plain,1.2.840.113619.2.337.3.2831186181.801.1414550448.629.3,3,0.625000
10,Thin Plain,1.2.840.113619.2.337.3.2831186181.801.1414550448.629.3,3,0.625000
10,Thin Plain,1.2.840.113619.2.337.3.2831186181.801.1414550448.629.3,3,0.625000
10,Thin Plain,1.2.840.113619.2.337.3.2831186181.801.1414550448.629.3,3,0.625000
10,Thin Plain,1.2.840.113619.2.337.3.2831186181.801.1414550448.629.3,3,0.625000
10,Thin Plain,1.2.840.113619.2.337.3.2831186181.801.1414550448.629.3,3,0.625000
10,Thin Plain,1.2.840.113619.2.337.3.2831186181.801.1414550448.629.3,3,0.625000
10,Thin Plain,1.2.840.113619.2.337.3.2831186181.801.1414550448.629.3,3,0.625000
10,Thin Plain,1.2.840.113619.2.337.3.2831186181.801.1414550448.629.3,3,0.625000
10,Thin Plain,1.2.840.113619.2.337.3.2831186181.801.1414550448.629.3,3,0.625000
10,Thin Plain,1.2.840.113619.2.337.3.2831186181.801.1414550448.629.3,3,0.625000
10,Thin Plain,1.2.840.113619.2.337.3.2831186181.801.1414550448.629.3,3,0.625000
10,Thin Plain,1.2.840.113619.2.337.3.2831186181.801.1414550448.629.3,3,0.625000
10,Thin Plain,1.2.840.113619.2.337.3.2831186181.801.1414550448.629.3,3,0.625000
10,Thin Plain,1.2.840.113619.2.337.3.2831186181.801.1414550448.629.3,3,0.625000
10,Thin Plain,1.2.840.113619.2.337.3.2831186181.801.1414550448.629.3,3,0.625000
10,Thin Plain,1.2.840.113619.2.337.3.2831186181.801.1414550448.629.3,3,0.625000
10,Thin Plain,1.2.840.113619.2.337.3.2831186181.801.1414550448.629.3,3,0.625000
10,Thin Plain,1.2.840.113619.2.337.3.2831186181.801.1414550448.629.3,3,0.625000
10,Thin Plain,1.2.840.113619.2.337.3.2831186181.801.1414550448.629.3,3,0.625000
10,Thin Plain,1.2.840.113619.2.337.3.2831186181.801.1414550448.629.3,3,0.625000
10,Thin Plain,1.2.840.113619.2.337.3.2831186181.801.1414550448.629.3,3,0.625000
10,Thin Plain,1.2.840.113619.2.337.3.2831186181.801.1414550448.629.3,3,0.625000
10,Thin Plain,1.2.840.113619.2.337.3.2831186181.801.1414550448.629.3,3,0.625000
10,Thin Plain,1.2.840.113619.2.337.3.2831186181.801.1414550448.629.3,3,0.625000
10,Thin Plain,1.2.840.113619.2.337.3.2831186181.801.1414550448.629.3,3,0.625000
10,Thin Plain,1.2.840.113619.2.337.3.2831186181.801.1414550448.629.3,3,0.625000
10,Thin Plain,1.2.840.113619.2.337.3.2831186181.801.1414550448.629.3,3,0.625000
10,Thin Plain,1.2.840.113619.2.337.3.2831186181.801.1414550448.629.3,3,0.625000
10,Thin Plain,1.2.840.113619.2.337.3.2831186181.801.1414550448.629.3,3,0.625000
10,Thin Plain,1.2.840.113619.2.337.3.2831186181.801.1414550448.629.3,3,0.625000
10,Thin Plain,1.2.840.113619.2.337.3.2831186181.801.1414550448.629.3,3,0.625000
10,Thin Plain,1.2.840.113619.2.337.3.2831186181.801.1414550448.629.3,3,0.625000
10,Thin Plain,1.2.840.113619.2.337.3.2831186181.801.1414550448.629.3,3,0.625000
10,Thin Plain,1.2.840.113619.2.337.3.2831186181.801.1414550448.629.3,3,0.625000
10,Thin Plain,1.2.840.113619.2.337.3.2831186181.801.1414550448.629.3,3,0.625000
10,Thin Plain,1.2.840.113619.2.337.3.2831186181.801.1414550448.629.3,3,0.625000
10,Thin Plain,1.2.840.113619.2.337.3.2831186181.801.1414550448.629.3,3,0.625000
10,Thin Plain,1.2.840.113619.2.337.3.2831186181.801.1414550448.629.3,3,0.625000
10,Thin Plain,1.2.840.113619.2.337.3.2831186181.801.1414550448.629.3,3,0.625000
10,Thin Plain,1.2.840.113619.2.337.3.2831186181.801.1414550448.629.3,3,0.625000
10,Thin Plain,1.2.840.113619.2.337.3.2831186181.801.1414550448.629.3,3,0.625000
10,Thin Plain,1.2.840.113619.2.337.3.2831186181.801.1414550448.629.3,3,0.625000
10,Thin Plain,1.2.840.113619.2.337.3.2831186181.801.1414550448.629.3,3,0.625000
10,Thin Plain,1.2.840.113619.2.337.3.2831186181.801.1414550448.629.3,3,0.625000
10,Thin Plain,1.2.840.113619.2.337.3.2831186181.801.1414550448.629.3,3,0.625000
10,Thin Plain,1.2.840.113619.2.337.3.2831186181.801.1414550448.629.3,3,0.625000
10,Thin Plain,1.2.840.113619.2.337.3.2831186181.801.1414550448.629.3,3,0.625000
10,Thin Plain,1.2.840.113619.2.337.3.2831186181.801.1414550448.629.3,3,0.625000
10,Thin Plain,1.2.840.113619.2.337.3.2831186181.801.1414550448.629.3,3,0.625000
10,Thin Plain,1.2.840.113619.2.337.3.2831186181.801.1414550448.629.3,3,0.625000
10,Thin Plain,1.2.840.113619.2.337.3.2831186181.801.1414550448.629.3,3,0.625000
10,Thin Plain,1.2.840.113619.2.337.3.2831186181.801.1414550448.629.3,3,0.625000
10,Thin Plain,1.2.840.113619.2.337.3.2831186181.801.1414550448.629.3,3,0.625000
10,Thin Plain,1.2.840.113619.2.337.3.2831186181.801.1414550448.629.3,3,0.625000
10,Thin Plain,1.2.840.113619.2.337.3.2831186181.801.1414550448.629.3,3,0.625000
10,Thin Plain,1.2.840.113619.2.337.3.2831186181.801.1414550448.629.3,3,0.625000
10,Thin Plain,1.2.840.113619.2.337.3.2831186181.801.1414550448.629.3,3,0.625000
10,Thin Plain,1.2.840.113619.2.337.3.2831186181.801.1414550448.629.3,3,0.625000
10,Thin Plain,1.2.840.113619.2.337.3.2831186181.801.1414550448.629.3,3,0.625000
10,Thin Plain,1.2.840.113619.2.337.3.2831186181.801.1414550448.629.3,3,0.625000
10,Thin Plain,1.2.840.113619.2.337.3.2831186181.801.1414550448.629.3,3,0.625000
10,Thin Plain,1.2.840.113619.2.337.3.2831186181.801.1414550448.629.3,3,0.625000
10,Thin Plain,1.2.840.113619.2.337.3.2831186181.801.1414550448.629.3,3,0.625000
10,Thin Plain,1.2.840.113619.2.337.3.2831186181.801.1414550448.629.3,3,0.625000
10,Thin Plain,1.2.840.113619.2.337.3.2831186181.801.1414550448.629.3,3,0.625000
10,Thin Plain,1.2.840.113619.2.337.3.2831186181.801.1414550448.629.3,3,0.625000
10,Thin Plain,1.2.840.113619.2.337.3.2831186181.801.1414550448.629.3,3,0.625000
10,Thin Plain,1.2.840.113619.2.337.3.2831186181.801.1414550448.629.3,3,0.625000
10,Thin Plain,1.2.840.113619.2.337.3.2831186181.801.1414550448.629.3,3,0.625000
10,Thin Plain,1.2.840.113619.2.337.3.2831186181.801.1414550448.629.3,3,0.625000
10,Thin Plain,1.2.840.113619.2.337.3.2831186181.801.1414550448.629.3,3,0.625000
10,Thin Plain,1.2.840.113619.2.337.3.2831186181.801.1414550448.629.3,3,0.625000
10,Thin Plain,1.2.840.113619.2.337.3.2831186181.801.1414550448.629.3,3,0.625000
10,Thin Plain,1.2.840.113619.2.337.3.2831186181.801.1414550448.629.3,3,0.625000
10,Thin Plain,1.2.840.113619.2.337.3.2831186181.801.1414550448.629.3,3,0.625000
10,Thin Plain,1.2.840.113619.2.337.3.2831186181.801.1414550448.629.3,3,0.625000
10,Thin Plain,1.2.840.113619.2.337.3.2831186181.801.1414550448.629.3,3,0.625000
10,Thin Plain,1.2.840.113619.2.337.3.2831186181.801.1414550448.629.3,3,0.625000
10,Thin Plain,1.2.840.113619.2.337.3.2831186181.801.1414550448.629.3,3,0.625000
10,Thin Plain,1.2.840.113619.2.337.3.2831186181.801.1414550448.629.3,3,0.625000
10,Thin Plain,1.2.840.113619.2.337.3.2831186181.801.1414550448.629.3,3,0.625000
10,Thin Plain,1.2.840.113619.2.337.3.2831186181.801.1414550448.629.3,3,0.625000
10,Thin Plain,1.2.840.113619.2.337.3.2831186181.801.1414550448.629.3,3,0.625000
10,Thin Plain,1.2.840.113619.2.337.3.2831186181.801.1414550448.629.3,3,0.625000
10,Thin Plain,1.2.840.113619.2.337.3.2831186181.801.1414550448.629.3,3,0.625000
10,Thin Plain,1.2.840.113619.2.337.3.2831186181.801.1414550448.629.3,3,0.625000
10,Thin Plain,1.2.840.113619.2.337.3.2831186181.801.1414550448.629.3,3,0.625000
10,Thin Plain,1.2.840.113619.2.337.3.2831186181.801.1414550448.629.3,3,0.625000
10,Thin Plain,1.2.840.113619.2.337.3.2831186181.801.1414550448.629.3,3,0.625000
10,Thin Plain,1.2.840.113619.2.337.3.2831186181.801.1414550448.629.3,3,0.625000
10,Thin Plain,1.2.840.113619.2.337.3.2831186181.801.1414550448.629.3,3,0.625000
10,Thin Plain,1.2.840.113619.2.337.3.2831186181.801.1414550448.629.3,3,0.625000
10,Thin Plain,1.2.840.113619.2.337.3.2831186181.801.1414550448.629.3,3,0.625000
10,Thin Plain,1.2.840.113619.2.337.3.2831186181.801.1414550448.629.3,3,0.625000
10,Thin Plain,1.2.840.113619.2.337.3.2831186181.801.1414550448.629.3,3,0.625000
10,Thin Plain,1.2.840.113619.2.337.3.2831186181.801.1414550448.629.3,3,0.625000
10,Thin Plain,1.2.840.113619.2.337.3.2831186181.801.1414550448.629.3,3,0.625000
10,Thin Plain,1.2.840.113619.2.337.3.2831186181.801.1414550448.629.3,3,0.625000
10,Thin Plain,1.2.840.113619.2.337.3.2831186181.801.1414550448.629.3,3,0.625000
10,Thin Plain,1.2.840.113619.2.337.3.2831186181.801.1414550448.629.3,3,0.625000
10,Thin Plain,1.2.840.113619.2.337.3.2831186181.801.1414550448.629.3,3,0.625000
10,Thin Plain,1.2.840.113619.2.337.3.2831186181.801.1414550448.629.3,3,0.625000
10,Thin Plain,1.2.840.113619.2.337.3.2831186181.801.1414550448.629.3,3,0.625000
10,Thin Plain,1.2.840.113619.2.337.3.2831186181.801.1414550448.629.3,3,0.625000
10,Thin Plain,1.2.840.113619.2.337.3.2831186181.801.1414550448.629.3,3,0.625000
10,Thin Plain,1.2.840.113619.2.337.3.2831186181.801.1414550448.629.3,3,0.625000
10,Thin Plain,1.2.840.113619.2.337.3.2831186181.801.1414550448.629.3,3,0.625000
10,Thin Plain,1.2.840.113619.2.337.3.2831186181.801.1414550448.629.3,3,0.625000
10,Thin Plain,1.2.840.113619.2.337.3.2831186181.801.1414550448.629.3,3,0.625000
10,Thin Plain,1.2.840.113619.2.337.3.2831186181.801.1414550448.629.3,3,0.625000
10,Thin Plain,1.2.840.113619.2.337.3.2831186181.801.1414550448.629.3,3,0.625000
10,Thin Plain,1.2.840.113619.2.337.3.2831186181.801.1414550448.629.3,3,0.625000
10,Thin Plain,1.2.840.113619.2.337.3.2831186181.801.1414550448.629.3,3,0.625000
10,Thin Plain,1.2.840.113619.2.337.3.2831186181.801.1414550448.629.3,3,0.625000
10,Thin Plain,1.2.840.113619.2.337.3.2831186181.801.1414550448.629.3,3,0.625000
10,Thin Plain,1.2.840.113619.2.337.3.2831186181.801.1414550448.629.3,3,0.625000
10,Thin Plain,1.2.840.113619.2.337.3.2831186181.801.1414550448.629.3,3,0.625000
10,Thin Plain,1.2.840.113619.2.337.3.2831186181.801.1414550448.629.3,3,0.625000
10,Thin Plain,1.2.840.113619.2.337.3.2831186181.801.1414550448.629.3,3,0.625000
10,Thin Plain,1.2.840.113619.2.337.3.2831186181.801.1414550448.629.3,3,0.625000
10,Thin Plain,1.2.840.113619.2.337.3.2831186181.801.1414550448.629.3,3,0.625000
10,Thin Plain,1.2.840.113619.2.337.3.2831186181.801.1414550448.629.3,3,0.625000
10,Thin Plain,1.2.840.113619.2.337.3.2831186181.801.1414550448.629.3,3,0.625000
10,Thin Plain,1.2.840.113619.2.337.3.2831186181.801.1414550448.629.3,3,0.625000
10,Thin Plain,1.2.840.113619.2.337.3.2831186181.801.1414550448.629.3,3,0.625000
10,Thin Plain,1.2.840.113619.2.337.3.2831186181.801.1414550448.629.3,3,0.625000
10,Thin Plain,1.2.840.113619.2.337.3.2831186181.801.1414550448.629.3,3,0.625000
10,Thin Plain,1.2.840.113619.2.337.3.2831186181.801.1414550448.629.3,3,0.625000
10,Thin Plain,1.2.840.113619.2.337.3.2831186181.801.1414550448.629.3,3,0.625000
10,Thin Plain,1.2.840.113619.2.337.3.2831186181.801.1414550448.629.3,3,0.625000
10,Thin Plain,1.2.840.113619.2.337.3.2831186181.801.1414550448.629.3,3,0.625000
10,Thin Plain,1.2.840.113619.2.337.3.2831186181.801.1414550448.629.3,3,0.625000
10,Thin Plain,1.2.840.113619.2.337.3.2831186181.801.1414550448.629.3,3,0.625000
10,Thin Plain,1.2.840.113619.2.337.3.2831186181.801.1414550448.629.3,3,0.625000
10,Thin Plain,1.2.840.113619.2.337.3.2831186181.801.1414550448.629.3,3,0.625000
10,Thin Plain,1.2.840.113619.2.337.3.2831186181.801.1414550448.629.3,3,0.625000
10,Thin Plain,1.2.840.113619.2.337.3.2831186181.801.1414550448.629.3,3,0.625000
10,Thin Plain,1.2.840.113619.2.337.3.2831186181.801.1414550448.629.3,3,0.625000
10,Thin Plain,1.2.840.113619.2.337.3.2831186181.801.1414550448.629.3,3,0.625000
10,Thin Plain,1.2.840.113619.2.337.3.2831186181.801.1414550448.629.3,3,0.625000
10,Thin Plain,1.2.840.113619.2.337.3.2831186181.801.1414550448.629.3,3,0.625000
10,Thin Plain,1.2.840.113619.2.337.3.2831186181.801.1414550448.629.3,3,0.625000
10,Thin Plain,1.2.840.113619.2.337.3.2831186181.801.1414550448.629.3,3,0.625000
10,Thin Plain,1.2.840.113619.2.337.3.2831186181.801.1414550448.629.3,3,0.625000
10,Thin Plain,1.2.840.113619.2.337.3.2831186181.801.1414550448.629.3,3,0.625000
10,Thin Plain,1.2.840.113619.2.337.3.2831186181.801.1414550448.629.3,3,0.625000
10,Thin Plain,1.2.840.113619.2.337.3.2831186181.801.1414550448.629.3,3,0.625000
10,Thin Plain,1.2.840.113619.2.337.3.2831186181.801.1414550448.629.3,3,0.625000
10,Thin Plain,1.2.840.113619.2.337.3.2831186181.801.1414550448.629.3,3,0.625000
10,Thin Plain,1.2.840.113619.2.337.3.2831186181.801.1414550448.629.3,3,0.625000
10,Thin Plain,1.2.840.113619.2.337.3.2831186181.801.1414550448.629.3,3,0.625000
10,Thin Plain,1.2.840.113619.2.337.3.2831186181.801.1414550448.629.3,3,0.625000
10,Thin Plain,1.2.840.113619.2.337.3.2831186181.801.1414550448.629.3,3,0.625000
10,Thin Plain,1.2.840.113619.2.337.3.2831186181.801.1414550448.629.3,3,0.625000
10,Thin Plain,1.2.840.113619.2.337.3.2831186181.801.1414550448.629.3,3,0.625000
10,Thin Plain,1.2.840.113619.2.337.3.2831186181.801.1414550448.629.3,3,0.625000
10,Thin Plain,1.2.840.113619.2.337.3.2831186181.801.1414550448.629.3,3,0.625000
10,Thin Plain,1.2.840.113619.2.337.3.2831186181.801.1414550448.629.3,3,0.625000
10,Thin Plain,1.2.840.113619.2.337.3.2831186181.801.1414550448.629.3,3,0.625000
10,Thin Plain,1.2.840.113619.2.337.3.2831186181.801.1414550448.629.3,3,0.625000
10,Thin Plain,1.2.840.113619.2.337.3.2831186181.801.1414550448.629.3,3,0.625000
10,Thin Plain,1.2.840.113619.2.337.3.2831186181.801.1414550448.629.3,3,0.625000
10,Thin Plain,1.2.840.113619.2.337.3.2831186181.801.1414550448.629.3,3,0.625000
10,Thin Plain,1.2.840.113619.2.337.3.2831186181.801.1414550448.629.3,3,0.625000
10,Thin Plain,1.2.840.113619.2.337.3.2831186181.801.1414550448.629.3,3,0.625000
10,Thin Plain,1.2.840.113619.2.337.3.2831186181.801.1414550448.629.3,3,0.625000
10,Thin Plain,1.2.840.113619.2.337.3.2831186181.801.1414550448.629.3,3,0.625000
10,Thin Plain,1.2.840.113619.2.337.3.2831186181.801.1414550448.629.3,3,0.625000
10,Thin Plain,1.2.840.113619.2.337.3.2831186181.801.1414550448.629.3,3,0.625000
10,Thin Plain,1.2.840.113619.2.337.3.2831186181.801.1414550448.629.3,3,0.625000
10,Thin Plain,1.2.840.113619.2.337.3.2831186181.801.1414550448.629.3,3,0.625000
10,Thin Plain,1.2.840.113619.2.337.3.2831186181.801.1414550448.629.3,3,0.625000
10,Thin Plain,1.2.840.113619.2.337.3.2831186181.801.1414550448.629.3,3,0.625000
10,Thin Plain,1.2.840.113619.2.337.3.2831186181.801.1414550448.629.3,3,0.625000
10,Thin Plain,1.2.840.113619.2.337.3.2831186181.801.1414550448.629.3,3,0.625000
10,Thin Plain,1.2.840.113619.2.337.3.2831186181.801.1414550448.629.3,3,0.625000
10,Thin Plain,1.2.840.113619.2.337.3.2831186181.801.1414550448.629.3,3,0.625000
10,Thin Plain,1.2.840.113619.2.337.3.2831186181.801.1414550448.629.3,3,0.625000
10,Thin Plain,1.2.840.113619.2.337.3.2831186181.801.1414550448.629.3,3,0.625000
85,5/5mm Plain,1.2.840.113619.2.337.3.2831186181.801.1414550448.629,2,5.000000
85,5/5mm Plain,1.2.840.113619.2.337.3.2831186181.801.1414550448.629,2,5.000000
85,5/5mm Plain,1.2.840.113619.2.337.3.2831186181.801.1414550448.629,2,5.000000
85,5/5mm Plain,1.2.840.113619.2.337.3.2831186181.801.1414550448.629,2,5.000000
85,5/5mm Plain,1.2.840.113619.2.337.3.2831186181.801.1414550448.629,2,5.000000
85,5/5mm Plain,1.2.840.113619.2.337.3.2831186181.801.1414550448.629,2,5.000000
85,5/5mm Plain,1.2.840.113619.2.337.3.2831186181.801.1414550448.629,2,5.000000
85,5/5mm Plain,1.2.840.113619.2.337.3.2831186181.801.1414550448.629,2,5.000000
85,5/5mm Plain,1.2.840.113619.2.337.3.2831186181.801.1414550448.629,2,5.000000
85,5/5mm Plain,1.2.840.113619.2.337.3.2831186181.801.1414550448.629,2,5.000000
85,5/5mm Plain,1.2.840.113619.2.337.3.2831186181.801.1414550448.629,2,5.000000
85,5/5mm Plain,1.2.840.113619.2.337.3.2831186181.801.1414550448.629,2,5.000000
85,5/5mm Plain,1.2.840.113619.2.337.3.2831186181.801.1414550448.629,2,5.000000
85,5/5mm Plain,1.2.840.113619.2.337.3.2831186181.801.1414550448.629,2,5.000000
85,5/5mm Plain,1.2.840.113619.2.337.3.2831186181.801.1414550448.629,2,5.000000
85,5/5mm Plain,1.2.840.113619.2.337.3.2831186181.801.1414550448.629,2,5.000000
85,5/5mm Plain,1.2.840.113619.2.337.3.2831186181.801.1414550448.629,2,5.000000
85,5/5mm Plain,1.2.840.113619.2.337.3.2831186181.801.1414550448.629,2,5.000000
85,5/5mm Plain,1.2.840.113619.2.337.3.2831186181.801.1414550448.629,2,5.000000
85,5/5mm Plain,1.2.840.113619.2.337.3.2831186181.801.1414550448.629,2,5.000000
85,5/5mm Plain,1.2.840.113619.2.337.3.2831186181.801.1414550448.629,2,5.000000
85,5/5mm Plain,1.2.840.113619.2.337.3.2831186181.801.1414550448.629,2,5.000000
85,5/5mm Plain,1.2.840.113619.2.337.3.2831186181.801.1414550448.629,2,5.000000
85,5/5mm Plain,1.2.840.113619.2.337.3.2831186181.801.1414550448.629,2,5.000000
85,5/5mm Plain,1.2.840.113619.2.337.3.2831186181.801.1414550448.629,2,5.000000
85,5/5mm Plain,1.2.840.113619.2.337.3.2831186181.801.1414550448.629,2,5.000000
85,5/5mm Plain,1.2.840.113619.2.337.3.2831186181.801.1414550448.629,2,5.000000
85,5/5mm Plain,1.2.840.113619.2.337.3.2831186181.801.1414550448.629,2,5.000000
85,5/5mm Plain,1.2.840.113619.2.337.3.2831186181.801.1414550448.629,2,5.000000
85,5/5mm Plain,1.2.840.113619.2.337.3.2831186181.801.1414550448.629,2,5.000000
85,5/5mm Plain,1.2.840.113619.2.337.3.2831186181.801.1414550448.629,2,5.000000
85,5/5mm Plain,1.2.840.113619.2.337.3.2831186181.801.1414550448.629,2,5.000000
10,Thin Plain,1.2.840.113619.2.337.3.2831186181.801.1414550448.629.3,3,0.625000
10,Thin Plain,1.2.840.113619.2.337.3.2831186181.801.1414550448.629.3,3,0.625000
10,Thin Plain,1.2.840.113619.2.337.3.2831186181.801.1414550448.629.3,3,0.625000
10,Thin Plain,1.2.840.113619.2.337.3.2831186181.801.1414550448.629.3,3,0.625000
10,Thin Plain,1.2.840.113619.2.337.3.2831186181.801.1414550448.629.3,3,0.625000
10,Thin Plain,1.2.840.113619.2.337.3.2831186181.801.1414550448.629.3,3,0.625000
10,Thin Plain,1.2.840.113619.2.337.3.2831186181.801.1414550448.629.3,3,0.625000
10,Thin Plain,1.2.840.113619.2.337.3.2831186181.801.1414550448.629.3,3,0.625000
10,Thin Plain,1.2.840.113619.2.337.3.2831186181.801.1414550448.629.3,3,0.625000
10,Thin Plain,1.2.840.113619.2.337.3.2831186181.801.1414550448.629.3,3,0.625000
10,Thin Plain,1.2.840.113619.2.337.3.2831186181.801.1414550448.629.3,3,0.625000
10,Thin Plain,1.2.840.113619.2.337.3.2831186181.801.1414550448.629.3,3,0.625000
10,Thin Plain,1.2.840.113619.2.337.3.2831186181.801.1414550448.629.3,3,0.625000
10,Thin Plain,1.2.840.113619.2.337.3.2831186181.801.1414550448.629.3,3,0.625000
10,Thin Plain,1.2.840.113619.2.337.3.2831186181.801.1414550448.629.3,3,0.625000
10,Thin Plain,1.2.840.113619.2.337.3.2831186181.801.1414550448.629.3,3,0.625000
10,Thin Plain,1.2.840.113619.2.337.3.2831186181.801.1414550448.629.3,3,0.625000
10,Thin Plain,1.2.840.113619.2.337.3.2831186181.801.1414550448.629.3,3,0.625000
10,Thin Plain,1.2.840.113619.2.337.3.2831186181.801.1414550448.629.3,3,0.625000
10,Thin Plain,1.2.840.113619.2.337.3.2831186181.801.1414550448.629.3,3,0.625000
10,Thin Plain,1.2.840.113619.2.337.3.2831186181.801.1414550448.629.3,3,0.625000
10,Thin Plain,1.2.840.113619.2.337.3.2831186181.801.1414550448.629.3,3,0.625000
10,Thin Plain,1.2.840.113619.2.337.3.2831186181.801.1414550448.629.3,3,0.625000
10,Thin Plain,1.2.840.113619.2.337.3.2831186181.801.1414550448.629.3,3,0.625000
10,Thin Plain,1.2.840.113619.2.337.3.2831186181.801.1414550448.629.3,3,0.625000
10,Thin Plain,1.2.840.113619.2.337.3.2831186181.801.1414550448.629.3,3,0.625000
10,Thin Plain,1.2.840.113619.2.337.3.2831186181.801.1414550448.629.3,3,0.625000
10,Thin Plain,1.2.840.113619.2.337.3.2831186181.801.1414550448.629.3,3,0.625000
10,Thin Plain,1.2.840.113619.2.337.3.2831186181.801.1414550448.629.3,3,0.625000
10,Thin Plain,1.2.840.113619.2.337.3.2831186181.801.1414550448.629.3,3,0.625000
10,Thin Plain,1.2.840.113619.2.337.3.2831186181.801.1414550448.629.3,3,0.625000
10,Thin Plain,1.2.840.113619.2.337.3.2831186181.801.1414550448.629.3,3,0.625000
10,Thin Plain,1.2.840.113619.2.337.3.2831186181.801.1414550448.629.3,3,0.625000
10,Thin Plain,1.2.840.113619.2.337.3.2831186181.801.1414550448.629.3,3,0.625000
10,Thin Plain,1.2.840.113619.2.337.3.2831186181.801.1414550448.629.3,3,0.625000
10,Thin Plain,1.2.840.113619.2.337.3.2831186181.801.1414550448.629.3,3,0.625000
10,Thin Plain,1.2.840.113619.2.337.3.2831186181.801.1414550448.629.3,3,0.625000
10,Thin Plain,1.2.840.113619.2.337.3.2831186181.801.1414550448.629.3,3,0.625000
10,Thin Plain,1.2.840.113619.2.337.3.2831186181.801.1414550448.629.3,3,0.625000
10,Thin Plain,1.2.840.113619.2.337.3.2831186181.801.1414550448.629.3,3,0.625000
10,Thin Plain,1.2.840.113619.2.337.3.2831186181.801.1414550448.629.3,3,0.625000
10,Thin Plain,1.2.840.113619.2.337.3.2831186181.801.1414550448.629.3,3,0.625000
10,Thin Plain,1.2.840.113619.2.337.3.2831186181.801.1414550448.629.3,3,0.625000
10,Thin Plain,1.2.840.113619.2.337.3.2831186181.801.1414550448.629.3,3,0.625000
10,Thin Plain,1.2.840.113619.2.337.3.2831186181.801.1414550448.629.3,3,0.625000
10,Thin Plain,1.2.840.113619.2.337.3.2831186181.801.1414550448.629.3,3,0.625000
10,Thin Plain,1.2.840.113619.2.337.3.2831186181.801.1414550448.629.3,3,0.625000
10,Thin Plain,1.2.840.113619.2.337.3.2831186181.801.1414550448.629.3,3,0.625000
10,Thin Plain,1.2.840.113619.2.337.3.2831186181.801.1414550448.629.3,3,0.625000
10,Thin Plain,1.2.840.113619.2.337.3.2831186181.801.1414550448.629.3,3,0.625000
10,Thin Plain,1.2.840.113619.2.337.3.2831186181.801.1414550448.629.3,3,0.625000
10,Thin Plain,1.2.840.113619.2.337.3.2831186181.801.1414550448.629.3,3,0.625000
10,Thin Plain,1.2.840.113619.2.337.3.2831186181.801.1414550448.629.3,3,0.625000
10,Thin Plain,1.2.840.113619.2.337.3.2831186181.801.1414550448.629.3,3,0.625000
10,Thin Plain,1.2.840.113619.2.337.3.2831186181.801.1414550448.629.3,3,0.625000
10,Thin Plain,1.2.840.113619.2.337.3.2831186181.801.1414550448.629.3,3,0.625000
10,Thin Plain,1.2.840.113619.2.337.3.2831186181.801.1414550448.629.3,3,0.625000
10,Thin Plain,1.2.840.113619.2.337.3.2831186181.801.1414550448.629.3,3,0.625000
10,Thin Plain,1.2.840.113619.2.337.3.2831186181.801.1414550448.629.3,3,0.625000
10,Thin Plain,1.2.840.113619.2.337.3.2831186181.801.1414550448.629.3,3,0.625000
10,Thin Plain,1.2.840.113619.2.337.3.2831186181.801.1414550448.629.3,3,0.625000
10,Thin Plain,1.2.840.113619.2.337.3.2831186181.801.1414550448.629.3,3,0.625000
10,Thin Plain,1.2.840.113619.2.337.3.2831186181.801.1414550448.629.3,3,0.625000
10,Thin Plain,1.2.840.113619.2.337.3.2831186181.801.1414550448.629.3,3,0.625000
10,Thin Plain,1.2.840.113619.2.337.3.2831186181.801.1414550448.629.3,3,0.625000
10,Thin Plain,1.2.840.113619.2.337.3.2831186181.801.1414550448.629.3,3,0.625000
10,Thin Plain,1.2.840.113619.2.337.3.2831186181.801.1414550448.629.3,3,0.625000
10,Thin Plain,1.2.840.113619.2.337.3.2831186181.801.1414550448.629.3,3,0.625000
10,Thin Plain,1.2.840.113619.2.337.3.2831186181.801.1414550448.629.3,3,0.625000
10,Thin Plain,1.2.840.113619.2.337.3.2831186181.801.1414550448.629.3,3,0.625000
10,Thin Plain,1.2.840.113619.2.337.3.2831186181.801.1414550448.629.3,3,0.625000
10,Thin Plain,1.2.840.113619.2.337.3.2831186181.801.1414550448.629.3,3,0.625000
10,Thin Plain,1.2.840.113619.2.337.3.2831186181.801.1414550448.629.3,3,0.625000
10,Thin Plain,1.2.840.113619.2.337.3.2831186181.801.1414550448.629.3,3,0.625000
10,Thin Plain,1.2.840.113619.2.337.3.2831186181.801.1414550448.629.3,3,0.625000
10,Thin Plain,1.2.840.113619.2.337.3.2831186181.801.1414550448.629.3,3,0.625000
10,Thin Plain,1.2.840.113619.2.337.3.2831186181.801.1414550448.629.3,3,0.625000
10,Thin Plain,1.2.840.113619.2.337.3.2831186181.801.1414550448.629.3,3,0.625000
10,Thin Plain,1.2.840.113619.2.337.3.2831186181.801.1414550448.629.3,3,0.625000
10,Thin Plain,1.2.840.113619.2.337.3.2831186181.801.1414550448.629.3,3,0.625000
10,Thin Plain,1.2.840.113619.2.337.3.2831186181.801.1414550448.629.3,3,0.625000
10,Thin Plain,1.2.840.113619.2.337.3.2831186181.801.1414550448.629.3,3,0.625000
10,Thin Plain,1.2.840.113619.2.337.3.2831186181.801.1414550448.629.3,3,0.625000
10,Thin Plain,1.2.840.113619.2.337.3.2831186181.801.1414550448.629.3,3,0.625000
10,Thin Plain,1.2.840.113619.2.337.3.2831186181.801.1414550448.629.3,3,0.625000
10,Thin Plain,1.2.840.113619.2.337.3.2831186181.801.1414550448.629.3,3,0.625000
10,Thin Plain,1.2.840.113619.2.337.3.2831186181.801.1414550448.629.3,3,0.625000
10,Thin Plain,1.2.840.113619.2.337.3.2831186181.801.1414550448.629.3,3,0.625000
10,Thin Plain,1.2.840.113619.2.337.3.2831186181.801.1414550448.629.3,3,0.625000
10,Thin Plain,1.2.840.113619.2.337.3.2831186181.801.1414550448.629.3,3,0.625000
10,Thin Plain,1.2.840.113619.2.337.3.2831186181.801.1414550448.629.3,3,0.625000
10,Thin Plain,1.2.840.113619.2.337.3.2831186181.801.1414550448.629.3,3,0.625000
10,Thin Plain,1.2.840.113619.2.337.3.2831186181.801.1414550448.629.3,3,0.625000
10,Thin Plain,1.2.840.113619.2.337.3.2831186181.801.1414550448.629.3,3,0.625000
10,Thin Plain,1.2.840.113619.2.337.3.2831186181.801.1414550448.629.3,3,0.625000
10,Thin Plain,1.2.840.113619.2.337.3.2831186181.801.1414550448.629.3,3,0.625000
10,Thin Plain,1.2.840.113619.2.337.3.2831186181.801.1414550448.629.3,3,0.625000
10,Thin Plain,1.2.840.113619.2.337.3.2831186181.801.1414550448.629.3,3,0.625000
10,Thin Plain,1.2.840.113619.2.337.3.2831186181.801.1414550448.629.3,3,0.625000
10,Thin Plain,1.2.840.113619.2.337.3.2831186181.801.1414550448.629.3,3,0.625000
10,Thin Plain,1.2.840.113619.2.337.3.2831186181.801.1414550448.629.3,3,0.625000
10,Thin Plain,1.2.840.113619.2.337.3.2831186181.801.1414550448.629.3,3,0.625000
10,Thin Plain,1.2.840.113619.2.337.3.2831186181.801.1414550448.629.3,3,0.625000
10,Thin Plain,1.2.840.113619.2.337.3.2831186181.801.1414550448.629.3,3,0.625000
10,Thin Plain,1.2.840.113619.2.337.3.2831186181.801.1414550448.629.3,3,0.625000
10,Thin Plain,1.2.840.113619.2.337.3.2831186181.801.1414550448.629.3,3,0.625000
10,Thin Plain,1.2.840.113619.2.337.3.2831186181.801.1414550448.629.3,3,0.625000
10,Thin Plain,1.2.840.113619.2.337.3.2831186181.801.1414550448.629.3,3,0.625000
10,Thin Plain,1.2.840.113619.2.337.3.2831186181.801.1414550448.629.3,3,0.625000
10,Thin Plain,1.2.840.113619.2.337.3.2831186181.801.1414550448.629.3,3,0.625000
10,Thin Plain,1.2.840.113619.2.337.3.2831186181.801.1414550448.629.3,3,0.625000
10,Thin Plain,1.2.840.113619.2.337.3.2831186181.801.1414550448.629.3,3,0.625000
10,Thin Plain,1.2.840.113619.2.337.3.2831186181.801.1414550448.629.3,3,0.625000
10,Thin Plain,1.2.840.113619.2.337.3.2831186181.801.1414550448.629.3,3,0.625000
10,Thin Plain,1.2.840.113619.2.337.3.2831186181.801.1414550448.629.3,3,0.625000
10,Thin Plain,1.2.840.113619.2.337.3.2831186181.801.1414550448.629.3,3,0.625000
10,Thin Plain,1.2.840.113619.2.337.3.2831186181.801.1414550448.629.3,3,0.625000
10,Thin Plain,1.2.840.113619.2.337.3.2831186181.801.1414550448.629.3,3,0.625000
10,Thin Plain,1.2.840.113619.2.337.3.2831186181.801.1414550448.629.3,3,0.625000
10,Thin Plain,1.2.840.113619.2.337.3.2831186181.801.1414550448.629.3,3,0.625000
10,Thin Plain,1.2.840.113619.2.337.3.2831186181.801.1414550448.629.3,3,0.625000
10,Thin Plain,1.2.840.113619.2.337.3.2831186181.801.1414550448.629.3,3,0.625000
10,Thin Plain,1.2.840.113619.2.337.3.2831186181.801.1414550448.629.3,3,0.625000
10,Thin Plain,1.2.840.113619.2.337.3.2831186181.801.1414550448.629.3,3,0.625000
10,Thin Plain,1.2.840.113619.2.337.3.2831186181.801.1414550448.629.3,3,0.625000
10,Thin Plain,1.2.840.113619.2.337.3.2831186181.801.1414550448.629.3,3,0.625000
10,Thin Plain,1.2.840.113619.2.337.3.2831186181.801.1414550448.629.3,3,0.625000
10,Thin Plain,1.2.840.113619.2.337.3.2831186181.801.1414550448.629.3,3,0.625000
10,Thin Plain,1.2.840.113619.2.337.3.2831186181.801.1414550448.629.3,3,0.625000
10,Thin Plain,1.2.840.113619.2.337.3.2831186181.801.1414550448.629.3,3,0.625000
10,Thin Plain,1.2.840.113619.2.337.3.2831186181.801.1414550448.629.3,3,0.625000
10,Thin Plain,1.2.840.113619.2.337.3.2831186181.801.1414550448.629.3,3,0.625000
10,Thin Plain,1.2.840.113619.2.337.3.2831186181.801.1414550448.629.3,3,0.625000
10,Thin Plain,1.2.840.113619.2.337.3.2831186181.801.1414550448.629.3,3,0.625000
10,Thin Plain,1.2.840.113619.2.337.3.2831186181.801.1414550448.629.3,3,0.625000
10,Thin Plain,1.2.840.113619.2.337.3.2831186181.801.1414550448.629.3,3,0.625000
10,Thin Plain,1.2.840.113619.2.337.3.2831186181.801.1414550448.629.3,3,0.625000
10,Thin Plain,1.2.840.113619.2.337.3.2831186181.801.1414550448.629.3,3,0.625000
10,Thin Plain,1.2.840.113619.2.337.3.2831186181.801.1414550448.629.3,3,0.625000
10,Thin Plain,1.2.840.113619.2.337.3.2831186181.801.1414550448.629.3,3,0.625000
10,Thin Plain,1.2.840.113619.2.337.3.2831186181.801.1414550448.629.3,3,0.625000
10,Thin Plain,1.2.840.113619.2.337.3.2831186181.801.1414550448.629.3,3,0.625000
10,Thin Plain,1.2.840.113619.2.337.3.2831186181.801.1414550448.629.3,3,0.625000
10,Thin Plain,1.2.840.113619.2.337.3.2831186181.801.1414550448.629.3,3,0.625000
10,Thin Plain,1.2.840.113619.2.337.3.2831186181.801.1414550448.629.3,3,0.625000
10,Thin Plain,1.2.840.113619.2.337.3.2831186181.801.1414550448.629.3,3,0.625000
10,Thin Plain,1.2.840.113619.2.337.3.2831186181.801.1414550448.629.3,3,0.625000
10,Thin Plain,1.2.840.113619.2.337.3.2831186181.801.1414550448.629.3,3,0.625000
10,Thin Plain,1.2.840.113619.2.337.3.2831186181.801.1414550448.629.3,3,0.625000
10,Thin Plain,1.2.840.113619.2.337.3.2831186181.801.1414550448.629.3,3,0.625000
10,Thin Plain,1.2.840.113619.2.337.3.2831186181.801.1414550448.629.3,3,0.625000
10,Thin Plain,1.2.840.113619.2.337.3.2831186181.801.1414550448.629.3,3,0.625000
10,Thin Plain,1.2.840.113619.2.337.3.2831186181.801.1414550448.629.3,3,0.625000
10,Thin Plain,1.2.840.113619.2.337.3.2831186181.801.1414550448.629.3,3,0.625000
10,Thin Plain,1.2.840.113619.2.337.3.2831186181.801.1414550448.629.3,3,0.625000
10,Thin Plain,1.2.840.113619.2.337.3.2831186181.801.1414550448.629.3,3,0.625000
10,Thin Plain,1.2.840.113619.2.337.3.2831186181.801.1414550448.629.3,3,0.625000
10,Thin Plain,1.2.840.113619.2.337.3.2831186181.801.1414550448.629.3,3,0.625000
10,Thin Plain,1.2.840.113619.2.337.3.2831186181.801.1414550448.629.3,3,0.625000
10,Thin Plain,1.2.840.113619.2.337.3.2831186181.801.1414550448.629.3,3,0.625000
10,Thin Plain,1.2.840.113619.2.337.3.2831186181.801.1414550448.629.3,3,0.625000
10,Thin Plain,1.2.840.113619.2.337.3.2831186181.801.1414550448.629.3,3,0.625000
10,Thin Plain,1.2.840.113619.2.337.3.2831186181.801.1414550448.629.3,3,0.625000
10,Thin Plain,1.2.840.113619.2.337.3.2831186181.801.1414550448.629.3,3,0.625000
10,Thin Plain,1.2.840.113619.2.337.3.2831186181.801.1414550448.629.3,3,0.625000
10,Thin Plain,1.2.840.113619.2.337.3.2831186181.801.1414550448.629.3,3,0.625000
10,Thin Plain,1.2.840.113619.2.337.3.2831186181.801.1414550448.629.3,3,0.625000
10,Thin Plain,1.2.840.113619.2.337.3.2831186181.801.1414550448.629.3,3,0.625000
10,Thin Plain,1.2.840.113619.2.337.3.2831186181.801.1414550448.629.3,3,0.625000
10,Thin Plain,1.2.840.113619.2.337.3.2831186181.801.1414550448.629.3,3,0.625000
10,Thin Plain,1.2.840.113619.2.337.3.2831186181.801.1414550448.629.3,3,0.625000
10,Thin Plain,1.2.840.113619.2.337.3.2831186181.801.1414550448.629.3,3,0.625000
10,Thin Plain,1.2.840.113619.2.337.3.2831186181.801.1414550448.629.3,3,0.625000
10,Thin Plain,1.2.840.113619.2.337.3.2831186181.801.1414550448.629.3,3,0.625000
10,Thin Plain,1.2.840.113619.2.337.3.2831186181.801.1414550448.629.3,3,0.625000
10,Thin Plain,1.2.840.113619.2.337.3.2831186181.801.1414550448.629.3,3,0.625000
10,Thin Plain,1.2.840.113619.2.337.3.2831186181.801.1414550448.629.3,3,0.625000
10,Thin Plain,1.2.840.113619.2.337.3.2831186181.801.1414550448.629.3,3,0.625000
10,Thin Plain,1.2.840.113619.2.337.3.2831186181.801.1414550448.629.3,3,0.625000
10,Thin Plain,1.2.840.113619.2.337.3.2831186181.801.1414550448.629.3,3,0.625000
10,Thin Plain,1.2.840.113619.2.337.3.2831186181.801.1414550448.629.3,3,0.625000
10,Thin Plain,1.2.840.113619.2.337.3.2831186181.801.1414550448.629.3,3,0.625000
10,Thin Plain,1.2.840.113619.2.337.3.2831186181.801.1414550448.629.3,3,0.625000
10,Thin Plain,1.2.840.113619.2.337.3.2831186181.801.1414550448.629.3,3,0.625000
10,Thin Plain,1.2.840.113619.2.337.3.2831186181.801.1414550448.629.3,3,0.625000
10,Thin Plain,1.2.840.113619.2.337.3.2831186181.801.1414550448.629.3,3,0.625000
10,Thin Plain,1.2.840.113619.2.337.3.2831186181.801.1414550448.629.3,3,0.625000
10,Thin Plain,1.2.840.113619.2.337.3.2831186181.801.1414550448.629.3,3,0.625000
10,Thin Plain,1.2.840.113619.2.337.3.2831186181.801.1414550448.629.3,3,0.625000
10,Thin Plain,1.2.840.113619.2.337.3.2831186181.801.1414550448.629.3,3,0.625000
10,Thin Plain,1.2.840.113619.2.337.3.2831186181.801.1414550448.629.3,3,0.625000
10,Thin Plain,1.2.840.113619.2.337.3.2831186181.801.1414550448.629.3,3,0.625000
10,Thin Plain,1.2.840.113619.2.337.3.2831186181.801.1414550448.629.3,3,0.625000
10,Thin Plain,1.2.840.113619.2.337.3.2831186181.801.1414550448.629.3,3,0.625000
10,Thin Plain,1.2.840.113619.2.337.3.2831186181.801.1414550448.629.3,3,0.625000
10,Thin Plain,1.2.840.113619.2.337.3.2831186181.801.1414550448.629.3,3,0.625000
10,Thin Plain,1.2.840.113619.2.337.3.2831186181.801.1414550448.629.3,3,0.625000
10,Thin Plain,1.2.840.113619.2.337.3.2831186181.801.1414550448.629.3,3,0.625000
10,Thin Plain,1.2.840.113619.2.337.3.2831186181.801.1414550448.629.3,3,0.625000
10,Thin Plain,1.2.840.113619.2.337.3.2831186181.801.1414550448.629.3,3,0.625000
10,Thin Plain,1.2.840.113619.2.337.3.2831186181.801.1414550448.629.3,3,0.625000
10,Thin Plain,1.2.840.113619.2.337.3.2831186181.801.1414550448.629.3,3,0.625000
10,Thin Plain,1.2.840.113619.2.337.3.2831186181.801.1414550448.629.3,3,0.625000
10,Thin Plain,1.2.840.113619.2.337.3.2831186181.801.1414550448.629.3,3,0.625000
10,Thin Plain,1.2.840.113619.2.337.3.2831186181.801.1414550448.629.3,3,0.625000
10,Thin Plain,1.2.840.113619.2.337.3.2831186181.801.1414550448.629.3,3,0.625000
10,Thin Plain,1.2.840.113619.2.337.3.2831186181.801.1414550448.629.3,3,0.625000
10,Thin Plain,1.2.840.113619.2.337.3.2831186181.801.1414550448.629.3,3,0.625000
10,Thin Plain,1.2.840.113619.2.337.3.2831186181.801.1414550448.629.3,3,0.625000
10,Thin Plain,1.2.840.113619.2.337.3.2831186181.801.1414550448.629.3,3,0.625000
10,Thin Plain,1.2.840.113619.2.337.3.2831186181.801.1414550448.629.3,3,0.625000
10,Thin Plain,1.2.840.113619.2.337.3.2831186181.801.1414550448.629.3,3,0.625000
10,Thin Plain,1.2.840.113619.2.337.3.2831186181.801.1414550448.629.3,3,0.625000
10,Thin Plain,1.2.840.113619.2.337.3.2831186181.801.1414550448.629.3,3,0.625000
10,Thin Plain,1.2.840.113619.2.337.3.2831186181.801.1414550448.629.3,3,0.625000
10,Thin Plain,1.2.840.113619.2.337.3.2831186181.801.1414550448.629.3,3,0.625000
10,Thin Plain,1.2.840.113619.2.337.3.2831186181.801.1414550448.629.3,3,0.625000
10,Thin Plain,1.2.840.113619.2.337.3.2831186181.801.1414550448.629.3,3,0.625000
10,Thin Plain,1.2.840.113619.2.337.3.2831186181.801.1414550448.629.3,3,0.625000
10,Thin Plain,1.2.840.113619.2.337.3.2831186181.801.1414550448.629.3,3,0.625000
10,Thin Plain,1.2.840.113619.2.337.3.2831186181.801.1414550448.629.3,3,0.625000
10,Thin Plain,1.2.840.113619.2.337.3.2831186181.801.1414550448.629.3,3,0.625000
10,Thin Plain,1.2.840.113619.2.337.3.2831186181.801.1414550448.629.3,3,0.625000
10,Thin Plain,1.2.840.113619.2.337.3.2831186181.801.1414550448.629.3,3,0.625000
10,Thin Plain,1.2.840.113619.2.337.3.2831186181.801.1414550448.629.3,3,0.625000
10,Thin Plain,1.2.840.113619.2.337.3.2831186181.801.1414550448.629.3,3,0.625000
10,Thin Plain,1.2.840.113619.2.337.3.2831186181.801.1414550448.629.3,3,0.625000
10,Thin Plain,1.2.840.113619.2.337.3.2831186181.801.1414550448.629.3,3,0.625000
10,Thin Plain,1.2.840.113619.2.337.3.2831186181.801.1414550448.629.3,3,0.625000
10,Thin Plain,1.2.840.113619.2.337.3.2831186181.801.1414550448.629.3,3,0.625000
10,Thin Plain,1.2.840.113619.2.337.3.2831186181.801.1414550448.629.3,3,0.625000
10,Thin Plain,1.2.840.113619.2.337.3.2831186181.801.1414550448.629.3,3,0.625000
10,Thin Plain,1.2.840.113619.2.337.3.2831186181.801.1414550448.629.3,3,0.625000
10,Thin Plain,1.2.840.113619.2.337.3.2831186181.801.1414550448.629.3,3,0.625000
10,Thin Plain,1.2.840.113619.2.337.3.2831186181.801.1414550448.629.3,3,0.625000
10,Thin Plain,1.2.840.113619.2.337.3.2831186181.801.1414550448.629.3,3,0.625000
10,Thin Plain,1.2.840.113619.2.337.3.2831186181.801.1414550448.629.3,3,0.625000
10,Thin Plain,1.2.840.113619.2.337.3.2831186181.801.1414550448.629.3,3,0.625000
10,Thin Plain,1.2.840.113619.2.337.3.2831186181.801.1414550448.629.3,3,0.625000
10,Thin Plain,1.2.840.113619.2.337.3.2831186181.801.1414550448.629.3,3,0.625000
10,Thin Plain,1.2.840.113619.2.337.3.2831186181.801.1414550448.629.3,3,0.625000
10,Thin Plain,1.2.840.113619.2.337.3.2831186181.801.1414550448.629.3,3,0.625000
10,Thin Plain,1.2.840.113619.2.337.3.2831186181.801.1414550448.629.3,3,0.625000
10,Thin Plain,1.2.840.113619.2.337.3.2831186181.801.1414550448.629.3,3,0.625000
10,Thin Plain,1.2.840.113619.2.337.3.2831186181.801.1414550448.629.3,3,0.625000
10,Thin Plain,1.2.840.113619.2.337.3.2831186181.801.1414550448.629.3,3,0.625000
10,Thin Plain,1.2.840.113619.2.337.3.2831186181.801.1414550448.629.3,3,0.625000
10,Thin Plain,1.2.840.113619.2.337.3.2831186181.801.1414550448.629.3,3,0.625000
10,Thin Plain,1.2.840.113619.2.337.3.2831186181.801.1414550448.629.3,3,0.625000
10,Thin Plain,1.2.840.113619.2.337.3.2831186181.801.1414550448.629.3,3,0.625000
10,Thin Plain,1.2.840.113619.2.337.3.2831186181.801.1414550448.629.3,3,0.625000
10,Thin Plain,1.2.840.113619.2.337.3.2831186181.801.1414550448.629.3,3,0.625000
10,Thin Plain,1.2.840.113619.2.337.3.2831186181.801.1414550448.629.3,3,0.625000
10,Thin Plain,1.2.840.113619.2.337.3.2831186181.801.1414550448.629.3,3,0.625000
10,Thin Plain,1.2.840.113619.2.337.3.2831186181.801.1414550448.629.3,3,0.625000
10,Thin Plain,1.2.840.113619.2.337.3.2831186181.801.1414550448.629.3,3,0.625000
